<?xml version="1.0" encoding="UTF-8"?>
<svg width="24px" height="24px" viewBox="0 0 24 24" version="1.1" xmlns="http://www.w3.org/2000/svg" xmlns:xlink="http://www.w3.org/1999/xlink">
    <!-- Generator: Sketch 52.3 (67297) - http://www.bohemiancoding.com/sketch -->
    <title>icon/action/hide</title>
    <desc>Created with Sketch.</desc>
    <g id="icon/action/hide" stroke="none" stroke-width="1" fill="none" fill-rule="evenodd">
        <g>
            <polygon id="bounds" points="0 0 24 0 24 24 0 24"></polygon>
            <path d="M12,4.5 C7,4.5 2.73,7.61 1,12 C2.73,16.39 7,19.5 12,19.5 C17,19.5 21.27,16.39 23,12 C21.27,7.61 17,4.5 12,4.5 Z M12,17 C9.24,17 7,14.76 7,12 C7,9.24 9.24,7 12,7 C14.76,7 17,9.24 17,12 C17,14.76 14.76,17 12,17 Z M14.004397,14.2343827 L11.2687171,9.08931717 C11.5026941,9.03096684 11.7476495,9 12,9 C13.66,9 15,10.34 15,12 C15,12.8886675 14.6159681,13.685626 14.004397,14.2343827 Z M11.8728552,14.99737 C10.2721096,14.9310165 9,13.6174019 9,12 C9,11.4228803 9.16196473,10.8844387 9.44303208,10.4275374 L11.8728552,14.99737 Z" id="Shape" fill="#454545"></path>
            <rect id="dark-slash" fill="#454545" transform="translate(11.377443, 12.269503) rotate(-28.000000) translate(-11.377443, -12.269503) " x="10.8774428" y="1.03055694" width="1" height="22.477893"></rect>
        </g>
    </g>
</svg>