<?xml version="1.0" encoding="UTF-8"?>
<svg width="20px" height="19px" viewBox="0 0 20 19" version="1.1" xmlns="http://www.w3.org/2000/svg" xmlns:xlink="http://www.w3.org/1999/xlink">
    <!-- Generator: Sketch 58 (84663) - https://sketch.com -->
    <title>Group 2</title>
    <desc>Created with Sketch.</desc>
    <g id="Dish-Listing---Moble" stroke="none" stroke-width="1" fill="none" fill-rule="evenodd">
        <g id="09.-Dish-Search---version-2" transform="translate(-24.000000, -33.000000)" fill="#595856">
            <g id="Group-2" transform="translate(24.000000, 33.000000)">
                <rect id="Rectangle" x="0" y="-6.75015599e-14" width="20" height="3" rx="1.5"></rect>
                <rect id="Rectangle-Copy" x="0" y="8" width="20" height="3" rx="1.5"></rect>
                <rect id="Rectangle-Copy-2" x="0" y="16" width="20" height="3" rx="1.5"></rect>
            </g>
        </g>
    </g>
</svg>