<?xml version="1.0" encoding="UTF-8"?>
<svg width="24px" height="24px" viewBox="0 0 24 24" version="1.1" xmlns="http://www.w3.org/2000/svg" xmlns:xlink="http://www.w3.org/1999/xlink">
    <!-- Generator: Sketch 52.3 (67297) - http://www.bohemiancoding.com/sketch -->
    <title>icon/information/profile</title>
    <desc>Created with Sketch.</desc>
    <defs>
        <path d="M12.75,12.5 C15.374375,12.5 17.5,10.374375 17.5,7.75 C17.5,5.125625 15.374375,3 12.75,3 C10.125625,3 8,5.125625 8,7.75 C8,10.374375 10.125625,12.5 12.75,12.5 Z M12.75,11.5 C14.821875,11.5 16.5,9.821875 16.5,7.75 C16.5,5.678125 14.821875,4 12.75,4 C10.678125,4 9,5.678125 9,7.75 C9,9.821875 10.678125,11.5 12.75,11.5 Z M12.5,15 C9.329375,15 3,16.59125 3,19.75 L3,22.125 L22,22.125 L22,19.75 C22,16.59125 15.670625,15 12.5,15 Z M12.5,16 C9.663125,16 4,17.2004167 4,19.5833333 L4,21.375 L21,21.375 L21,19.5833333 C21,17.2004167 15.336875,16 12.5,16 Z" id="path-1"></path>
    </defs>
    <g id="icon/information/profile" stroke="none" stroke-width="1" fill="none" fill-rule="evenodd">
        <g>
            <polygon id="bounds" points="0 0 24 0 24 24 0 24"></polygon>
            <mask id="mask-2" fill="white">
                <use xlink:href="#path-1"></use>
            </mask>
            <use id="Shape" fill="#454545" xlink:href="#path-1"></use>
        </g>
    </g>
</svg>