{
  "project_info": {
    "project_number": "981781408632",
    "firebase_url": "https://mobile-notification-8a23c.firebaseio.com",
    "project_id": "mobile-notification-8a23c",
    "storage_bucket": "mobile-notification-8a23c.appspot.com"
  },
  "client": [
    {
      "client_info": {
        "mobilesdk_app_id": "1:981781408632:android:040f513e835d43aa22f68d",
        "android_client_info": {
          "package_name": "com.godysh.consumer"
        }
      },
      "oauth_client": [
        {
          "client_id": "981781408632-frsfgcv98p9upsqsl58pct0nhh9b7dgu.apps.googleusercontent.com",
          "client_type": 3
        }
      ],
      "api_key": [
        {
          "current_key": "AIzaSyCmMa8xRj9U_1bIl87TUTpJNHI_SD2yX6Y"
        }
      ],
      "services": {
        "appinvite_service": {
          "other_platform_oauth_client": [
            {
              "client_id": "981781408632-frsfgcv98p9upsqsl58pct0nhh9b7dgu.apps.googleusercontent.com",
              "client_type": 3
            }
          ]
        }
      }
    }
  ],
  "configuration_version": "1"
}