<?xml version="1.0" encoding="UTF-8"?>
<svg width="24px" height="24px" viewBox="0 0 24 24" version="1.1" xmlns="http://www.w3.org/2000/svg" xmlns:xlink="http://www.w3.org/1999/xlink">
    <!-- Generator: Sketch 52.3 (67297) - http://www.bohemiancoding.com/sketch -->
    <title>icon/information/map</title>
    <desc>Created with Sketch.</desc>
    <g id="icon/information/map" stroke="none" stroke-width="1" fill="none" fill-rule="evenodd">
        <g>
            <rect id="Bounds" x="0" y="0" width="24" height="24"></rect>
            <g id="shape" transform="translate(2.000000, 0.000000)" fill="#454545">
                <path d="M10.6074739,3 L13.6049501,3 C13.6419656,3 13.6785193,3.00821969 13.7119716,3.02406554 C13.8367518,3.08317193 13.8899909,3.23224143 13.8308845,3.35702159 L5.06772662,21.8570216 C5.02636843,21.9443333 4.93840394,22 4.84179216,22 L1.25,22 C1.11192881,22 1,21.8880712 1,21.75 L1,8.7363215 C1,8.64897314 1.04558941,8.56795866 1.12025322,8.52262599 C1.238274,8.45096882 1.39203835,8.48855395 1.46369552,8.60657473 L4.28721711,13.2569709 C4.30102968,13.2797205 4.3183863,13.3001185 4.33863145,13.3173946 C4.44365972,13.4070201 4.60145771,13.3945336 4.69108313,13.2895053 L5.0074331,12.918788 C6,12 10,5.65675547 10.5,3.34960508 C10.5072635,3.31608891 10.6081735,3.03496051 10.6074739,3 Z M11.053685,3.64696296 C9.03491586,8.11217411 7.26702085,11.2298531 5.75,13 L4.71434474,14.2427863 C4.62595372,14.3488555 4.46831254,14.3631866 4.36224332,14.2747955 C4.34377051,14.2594015 4.32761528,14.2414229 4.31427684,14.2214153 L1.77480754,10.4122113 C1.72885468,10.343282 1.63572427,10.3246559 1.56679497,10.3706088 C1.52506517,10.3984287 1.5,10.4452634 1.5,10.4954163 L1.5,21.25 C1.5,21.3880712 1.61192881,21.5 1.75,21.5 L4.34363969,21.5 C4.43929565,21.5 4.52656615,21.4454174 4.56842825,21.359408 L13.0859403,3.85940796 C13.1463647,3.73526066 13.094707,3.58563578 12.9705597,3.52521144 C12.9364736,3.5086212 12.8990609,3.5 12.8611518,3.5 L11.2815873,3.49988784 C11.1833245,3.49988784 11.0941657,3.55742582 11.053685,3.64696296 Z" id="map-left"></path>
                <path d="M6.93710738,22 C6.89902633,22 6.86144854,21.9913004 6.82724181,21.9745653 C6.70321784,21.9138882 6.65186504,21.7641584 6.71254212,21.6401344 L10.3040362,14.2991193 C10.3065115,14.2940597 10.3091571,14.2890853 10.3119685,14.2842044 C10.3808828,14.1645613 10.5337388,14.1234376 10.6533819,14.1923519 L18.8747805,18.9278736 C18.9522544,18.9724986 19,19.0550996 19,19.1445066 L19,21.75 C19,21.8880712 18.8880712,22 18.75,22 L6.93710738,22 Z M7.74940589,21.532647 L18.2507592,21.5007569 C18.3885334,21.5003385 18.5,21.3885328 18.5,21.250758 L18.5,19.4002761 C18.5,19.3078024 18.4489538,19.2228817 18.3672888,19.1794972 L10.7295859,15.1219675 C10.6076531,15.0571907 10.456295,15.1035248 10.3915182,15.2254576 C10.3899892,15.2283356 10.3885167,15.2312432 10.3871015,15.2341787 L7.52345111,21.1740805 C7.46349083,21.2984525 7.51570691,21.4478835 7.64007901,21.5078437 C7.67417381,21.524281 7.71155586,21.5327619 7.74940589,21.532647 Z" id="map-bottom"></path>
                <path d="M15.5620348,3.14099818 C15.6038125,3.05476664 15.6912017,3 15.7870206,3 L18.75,3 C18.8880712,3 19,3.11192881 19,3.25 L19,16.5820829 C19,16.6233417 18.9897886,16.6639591 18.9702766,16.7003124 C18.9049803,16.8219678 18.753426,16.8676559 18.6317705,16.8023596 L11.1540971,12.7888552 C11.0359916,12.7254642 10.9888974,12.5802072 11.0473408,12.4595767 L15.5620348,3.14099818 Z M15.9323549,3.64324842 L11.8528553,12.2821888 C11.7954418,12.4037703 11.8444744,12.5489867 11.9638381,12.610879 L18.1349207,15.8106996 C18.257494,15.8742562 18.4083821,15.8264136 18.4719386,15.7038403 C18.4903761,15.6682823 18.5,15.6288148 18.5,15.588761 L18.5,3.75 C18.5,3.61192881 18.3880712,3.5 18.25,3.5 L16.1584171,3.5 C16.0616974,3.5 15.9736548,3.55578975 15.9323549,3.64324842 Z" id="map-right"></path>
                <path d="M4.75012151,12.5 C4.75012151,12.5 0.25,7.33729781 0.25,4.90461465 C0.25,2.47216936 2.26482382,0.5 4.75012151,0.5 C7.2354192,0.5 9.25,2.47193149 9.25,4.90461465 C9.25,7.33729781 4.75012151,12.5 4.75012151,12.5 Z M4.75,11.5 C4.75,11.5 8.76397327,7.27090883 8.76397327,5.03111206 C8.76397327,2.7913153 6.96697916,0.975737393 4.75010838,0.975737393 C2.53323761,0.975737393 0.736026731,2.7915343 0.736026731,5.03111206 C0.736026731,7.27090883 4.75,11.5 4.75,11.5 Z M4.74987849,2.2188392 C5.71974484,2.2188392 6.50613609,2.98834443 6.50613609,3.9376784 C6.50613609,4.88725024 5.71998785,5.65675547 4.74987849,5.65675547 C3.77976914,5.65675547 2.9936209,4.88725024 2.9936209,3.9376784 C2.99386391,2.9885823 3.78001215,2.2188392 4.74987849,2.2188392 Z" id="pin-"></path>
            </g>
        </g>
    </g>
</svg>