<?xml version="1.0" encoding="UTF-8"?>
<svg width="10px" height="10px" viewBox="0 0 10 10" version="1.1" xmlns="http://www.w3.org/2000/svg" xmlns:xlink="http://www.w3.org/1999/xlink">
    <!-- Generator: Sketch 58 (84663) - https://sketch.com -->
    <title>close</title>
    <desc>Created with Sketch.</desc>
    <g id="Restaurant-Details-Desktop" stroke="none" stroke-width="1" fill="none" fill-rule="evenodd">
        <g id="03.-Restaurant-Detail-Cart-Menu" transform="translate(-1393.000000, -100.000000)" fill="#000000" fill-rule="nonzero">
            <g id="Group-30" transform="translate(1024.000000, 80.000000)">
                <g id="Group-28">
                    <g id="Group-33">
                        <g id="Rectangle">
                            <g transform="translate(14.000000, 0.689266)" id="close">
                                <g>
                                    <g>
                                        <g>
                                            <g transform="translate(355.000000, 20.000000)">
                                                <path d="M5.41977543,4.60531152 L9.04166306,0.983423897 C9.26668703,0.758591921 9.26668703,0.393791959 9.04166306,0.168959982 C8.81663908,-0.0560639942 8.45222312,-0.0560639942 8.22719914,0.168959982 L4.60531152,3.7908476 L0.983231897,0.168959982 C0.758207921,-0.0560639942 0.393791959,-0.0560639942 0.168767982,0.168959982 C-0.0562559941,0.393791959 -0.0562559941,0.758591921 0.168767982,0.983423897 L3.7908476,4.60531152 L0.168767982,8.22719914 C-0.0562559941,8.45203112 -0.0562559941,8.81683108 0.168767982,9.04166306 C0.281279971,9.15398305 0.428735955,9.21023904 0.57599994,9.21023904 C0.723263925,9.21023904 0.870719909,9.15398305 0.983231897,9.04147106 L4.60531152,5.41958343 L8.22719914,9.04147106 C8.33971113,9.15398305 8.48716711,9.21023904 8.6344311,9.21023904 C8.78169508,9.21023904 8.92915107,9.15398305 9.04166306,9.04147106 C9.26668703,8.81663908 9.26668703,8.45183912 9.04166306,8.22700714 L5.41977543,4.60531152 Z" id="Path"></path>
                                            </g>
                                        </g>
                                    </g>
                                </g>
                            </g>
                        </g>
                    </g>
                </g>
            </g>
        </g>
    </g>
</svg>