<?xml version="1.0" encoding="UTF-8"?>
<svg width="22px" height="15px" viewBox="0 0 22 15" version="1.1" xmlns="http://www.w3.org/2000/svg" xmlns:xlink="http://www.w3.org/1999/xlink">
    <!-- Generator: Sketch 52.3 (67297) - http://www.bohemiancoding.com/sketch -->
    <title>icon/information/payment</title>
    <desc>Created with Sketch.</desc>
    <defs>
        <path d="M1.5,18.9872123 C1.5,19.5396419 1.96666667,20 2.52666667,20 L21.4733333,20 C22.0333333,20 22.5,19.5396419 22.5,18.9872123 L22.5,11 L1.5,11 L1.5,18.9872123 Z M2.5,18.3390572 C2.5,18.7774935 2.92222222,19.142857 3.42888889,19.142857 L20.5711111,19.142857 C21.0777778,19.142857 21.5,18.7774935 21.5,18.3390572 L21.5,12 L2.5,12 L2.5,18.3390572 Z M4.41666667,13.831202 L13.1666667,13.831202 L13.1666667,14.6598465 L4.41666667,14.6598465 L4.41666667,13.831202 Z M4.41666667,16.2710997 L9.57333333,16.2710997 L9.57333333,17.0997442 L4.41666667,17.0997442 L4.41666667,16.2710997 Z M21.4733333,5 C22.0333333,5 22.5,5.61068702 22.5,6.34351145 L22.5,9 L1.5,9 L1.5,6.34351145 C1.5,5.61068702 1.96666667,5 2.52666667,5 L21.4733333,5 Z M20.5711111,6 L3.42888889,6 C2.92222222,6 2.5,6.30534351 2.5,6.67175573 L2.5,8 L21.5,8 L21.5,6.67175573 C21.5,6.30534351 21.0777778,6 20.5711111,6 Z" id="path-1"></path>
    </defs>
    <g id="Symbols" stroke="none" stroke-width="1" fill="none" fill-rule="evenodd">
        <g id="icon/information/payment" transform="translate(-1.000000, -5.000000)">
            <g>
                <rect id="bounds" x="0" y="0" width="24" height="24"></rect>
                <mask id="mask-2" fill="white">
                    <use xlink:href="#path-1"></use>
                </mask>
                <use id="Shape" fill="#454545" xlink:href="#path-1"></use>
            </g>
        </g>
    </g>
</svg>