<?xml version="1.0" encoding="UTF-8"?>
<svg width="256px" height="277px" viewBox="0 0 256 277" version="1.1" xmlns="http://www.w3.org/2000/svg" xmlns:xlink="http://www.w3.org/1999/xlink">
    <!-- Generator: Sketch 58 (84663) - https://sketch.com -->
    <title>Group 37</title>
    <desc>Created with Sketch.</desc>
    <defs>
        <circle id="path-1" cx="162.5" cy="161.5" r="98.5"></circle>
        <filter x="-17.0%" y="-15.0%" width="134.0%" height="134.0%" filterUnits="objectBoundingBox" id="filter-2">
            <feOffset dx="0" dy="4" in="SourceAlpha" result="shadowOffsetOuter1"></feOffset>
            <feGaussianBlur stdDeviation="10.5" in="shadowOffsetOuter1" result="shadowBlurOuter1"></feGaussianBlur>
            <feColorMatrix values="0 0 0 0 0   0 0 0 0 0   0 0 0 0 0  0 0 0 0.0907998252 0" type="matrix" in="shadowBlurOuter1"></feColorMatrix>
        </filter>
        <path d="M162,276 C224.960461,276 276,224.960461 276,162 C276,99.0395385 224.960461,48 162,48 C99.0395385,48 48,99.0395385 48,162" id="path-3"></path>
        <filter x="-16.7%" y="-14.9%" width="133.3%" height="133.3%" filterUnits="objectBoundingBox" id="filter-4">
            <feOffset dx="0" dy="4" in="SourceAlpha" result="shadowOffsetOuter1"></feOffset>
            <feMorphology radius="1.5" operator="erode" in="SourceAlpha" result="shadowInner"></feMorphology>
            <feOffset dx="0" dy="4" in="shadowInner" result="shadowInner"></feOffset>
            <feComposite in="shadowOffsetOuter1" in2="shadowInner" operator="out" result="shadowOffsetOuter1"></feComposite>
            <feGaussianBlur stdDeviation="12" in="shadowOffsetOuter1" result="shadowBlurOuter1"></feGaussianBlur>
            <feColorMatrix values="0 0 0 0 0   0 0 0 0 0   0 0 0 0 0  0 0 0 0.0907998252 0" type="matrix" in="shadowBlurOuter1"></feColorMatrix>
        </filter>
    </defs>
    <g id="Page-1" stroke="none" stroke-width="1" fill="none" fill-rule="evenodd">
        <g id="GoDysh_Splash_V03_121219" transform="translate(-1004.000000, -1328.000000)">
            <g id="Group-6" transform="translate(328.000000, 1229.000000)">
                <g id="Group-4-Copy-6" transform="translate(650.000000, 79.000000)">
                    <g id="Group-37" transform="translate(0.000000, 0.000000)">
                        <g id="Oval">
                            <use fill="black" fill-opacity="1" filter="url(#filter-2)" xlink:href="#path-1"></use>
                            <use fill="#FFFFFF" fill-rule="evenodd" xlink:href="#path-1"></use>
                        </g>
                        <g id="Shape" transform="translate(162.000000, 162.000000) rotate(-135.000000) translate(-162.000000, -162.000000) ">
                            <use fill="black" fill-opacity="1" filter="url(#filter-4)" xlink:href="#path-3"></use>
                            <path stroke="#50783F" stroke-width="1.5" d="M162.310244,275.249584 C224.71383,275.082247 275.25,224.442801 275.25,162 C275.25,99.4537521 224.546248,48.75 162,48.75 C99.5571993,48.75 48.9177535,99.2861697 48.7504159,161.689756 L162.310244,275.249584 Z" stroke-linejoin="square"></path>
                        </g>
                        <g id="meal" transform="translate(116.000000, 109.000000)">
                            <path d="M51.2249072,82.9288213 L51.2249072,34.4754621 C23.075476,36.1980568 9.00076049,51.8857664 9.00076049,81.5385909 L11.385344,83.6653832 L51.2249072,82.9288213 Z" id="Path-4" fill="#FFD542"></path>
                            <path d="M98.8450495,81.5385909 L97.1444308,81.5385909 L97.1444308,77.3016851 C97.1162748,54.2035337 79.5316832,34.8829225 56.4663366,32.6061368 C57.0246288,29.9774113 58.3053219,27.5555206 60.1652229,25.6098308 L63.1312499,25.6098308 C64.0708539,25.6098308 64.8318689,24.8514368 64.8318689,23.9150686 C64.8318689,22.979502 64.0708539,22.2203062 63.1312499,22.2203062 L39.3217822,22.2203062 C38.3829826,22.2203062 37.6211635,22.979502 37.6211635,23.9150686 C37.6211635,24.8514368 38.3829826,25.6098308 39.3217822,25.6098308 L42.2878095,25.6098308 C44.1911509,27.6060268 45.4806931,30.1040776 46.0019802,32.8081615 C23.6823639,35.8609784 7.04059406,54.8504936 7.00922025,77.3016851 L7.00922025,81.5385909 C5.66256193,81.5289706 4.36980198,82.0636947 3.42617579,83.020105 C2.44715336,83.9644901 1.89851485,85.2664267 1.9072585,86.6236796 C1.9072585,89.4311807 4.19121277,91.7079664 7.00922025,91.7079664 L15.5123144,91.7079664 C15.5131188,94.2124309 16.4462871,96.6287098 18.1316213,98.4870157 L12.1110768,98.4870157 C11.1722772,98.4870157 10.4104579,99.2462116 10.4104579,100.181778 C10.4104579,101.118146 11.1722772,101.876541 12.1110768,101.876541 L25.7168317,101.876541 C31.3496286,101.870929 35.9149133,97.3213657 35.9205446,91.7079664 L69.9337252,91.7079664 C69.9345298,94.2124309 70.8676981,96.6287098 72.5530321,98.4870157 L66.5324876,98.4870157 C65.593688,98.4870157 64.8318689,99.2462116 64.8318689,100.181778 C64.8318689,101.118146 65.593688,101.876541 66.5324876,101.876541 L80.1382425,101.876541 C85.7710396,101.870929 90.3363243,97.3213657 90.3419555,91.7079664 L98.8450495,91.7079664 C101.656621,91.6919329 103.931621,89.4247673 103.94771,86.6236796 C103.94771,83.8153766 101.663057,81.5385909 98.8450495,81.5385909 Z M46.619802,25.6098308 L55.8300123,25.6098308 C54.391646,27.6340859 53.446411,29.9637827 53.0683168,32.414534 C52.7384902,32.414534 52.4102724,32.3896817 52.0772277,32.3896817 C51.1722154,32.3896817 50.2760519,32.4233526 49.3847153,32.4754621 C49.0154702,30.0030652 48.0686262,27.6509212 46.619802,25.6098308 Z M10.4104579,77.3016851 C10.4104579,54.3694826 29.0649751,35.7792066 52.0772277,35.7792066 C75.0886757,35.7792066 93.743193,54.3694826 93.743193,77.3016851 L93.743193,81.5385909 L10.4104579,81.5385909 L10.4104579,77.3016851 Z M7.00922025,88.318442 C6.06961629,88.318442 5.30859897,87.5592462 5.30859897,86.6236796 C5.30779713,86.166719 5.4960396,85.7306023 5.82908426,85.4163417 C6.13879956,85.1004779 6.56516084,84.9241071 7.00922025,84.9289172 L18.1316213,84.9289172 C17.2418935,85.9165932 16.5540841,87.0678132 16.1076114,88.318442 L7.00922025,88.318442 Z M25.7168317,98.4870157 C21.9592202,98.4870157 18.913552,95.451836 18.913552,91.7079664 C18.913552,87.9640971 21.9592202,84.9289172 25.7168317,84.9289172 C29.4736387,84.9289172 32.5193069,87.9640971 32.5193069,91.7079664 C32.5193069,95.451836 29.4736387,98.4870157 25.7168317,98.4870157 Z M35.3252475,88.318442 C34.8787747,87.0678132 34.1909654,85.9165932 33.3012376,84.9289172 L72.5530321,84.9289172 C71.6633045,85.9165932 70.975495,87.0678132 70.5290222,88.318442 L35.3252475,88.318442 Z M80.1382425,98.4870157 C76.3806312,98.4870157 73.3349628,95.451836 73.3349628,91.7079664 C73.3349628,87.9640971 76.3806312,84.9289172 80.1382425,84.9289172 C83.8950495,84.9289172 86.9407177,87.9640971 86.9407177,91.7079664 C86.9407177,95.451836 83.8950495,98.4870157 80.1382425,98.4870157 L80.1382425,98.4870157 Z M100.02599,87.8302156 C99.7154702,88.1460797 99.2891089,88.3224504 98.8450495,88.318442 L89.7466583,88.318442 C89.3001857,87.0678132 88.6131806,85.9165932 87.7226486,84.9289172 L98.8450495,84.9289172 C99.7846535,84.9289172 100.545671,85.6873114 100.545671,86.6236796 C100.546473,87.0798384 100.35823,87.5167569 100.02599,87.8302156 Z" id="Shape" stroke="#FFFFFF" stroke-width="0.3" fill="#333333" fill-rule="nonzero"></path>
                            <path d="M22.3155941,57.8119183 L30.8186882,57.8119183 C31.7574876,57.8119183 32.5193069,57.0527227 32.5193069,56.1171561 C32.8121287,52.2313883 33.9126238,48.4490379 35.7508044,45.0106105 C36.0830447,44.337195 35.9310024,43.525088 35.3775371,43.0168196 C34.8232673,42.5077497 33.999505,42.4227709 33.3527228,42.8075798 C32.9883045,43.0240349 24.3846535,48.2309795 20.8016088,55.3659772 C20.5417699,55.8894775 20.5715347,56.5091801 20.8788365,57.0062248 C21.1861386,57.5032696 21.7291461,57.80791 22.3155941,57.8119183 L22.3155941,57.8119183 Z M30.4140471,49.1304703 C29.8670174,50.8564983 29.4760519,52.6274209 29.2451732,54.4215921 L25.3475866,54.4215921 C26.8205446,52.4646787 28.5211635,50.6889462 30.4140471,49.1304703 L30.4140471,49.1304703 Z" id="Shape" stroke="#FFFFFF" stroke-width="0.3" fill="#333333" fill-rule="nonzero"></path>
                            <path d="M30.4920792,77.4475919 C30.8138614,77.0074666 30.9039604,76.4398736 30.7334158,75.9219851 C29.7624381,71.7428005 29.7801362,67.3960639 30.784901,63.2248962 C30.8830447,62.7278514 30.7535272,62.2123679 30.4309406,61.8211455 C30.108354,61.4291216 29.6264851,61.201443 29.1180693,61.201443 L18.913552,61.201443 C18.463057,61.201443 18.0302598,61.3802188 17.7116955,61.6976861 C17.31349,62.0945203 13.8116955,65.8888959 13.8116955,76.454304 C13.8116955,77.3906722 14.5735149,78.1490662 15.5123144,78.1490662 L29.1180693,78.1490662 C29.6618812,78.1482646 30.1727104,77.8869151 30.4920792,77.4475919 Z M27.0055692,74.7595416 L17.2491336,74.7595416 C17.496906,68.7469032 19.0398515,65.6956898 19.7542079,64.5909676 L27.0940594,64.5909676 C26.5446163,67.9564418 26.5148515,71.385249 27.0055692,74.7595416 Z" id="Shape" stroke="#FFFFFF" stroke-width="0.3" fill="#333333" fill-rule="nonzero"></path>
                            <path d="M5.30860154,101.902195 C6.24740109,101.902195 7.00922025,101.142999 7.00922025,100.207432 C7.00922025,99.2710639 6.24740109,98.5126697 5.30860154,98.5126697 L3.60798262,98.5126697 C2.66837866,98.5126697 1.90736391,99.2710639 1.90736391,100.207432 C1.90736391,101.142999 2.66837866,101.902195 3.60798262,101.902195 L5.30860154,101.902195 Z" id="Path" fill="#333333" fill-rule="nonzero"></path>
                            <path d="M59.7300123,101.902195 C60.6696163,101.902195 61.4306312,101.142999 61.4306312,100.207432 C61.4306312,99.2710639 60.6696163,98.5126697 59.7300123,98.5126697 L58.0293936,98.5126697 C57.0897897,98.5126697 56.3287747,99.2710639 56.3287747,100.207432 C56.3287747,101.142999 57.0897897,101.902195 58.0293936,101.902195 L59.7300123,101.902195 Z" id="Path" fill="#333333" fill-rule="nonzero"></path>
                            <path d="M13.4714108,7.58394115 C16.9699877,8.57562558 19.8048887,9.56891348 21.8047648,12.507891 C22.0823019,12.9143454 22.3405322,13.3360319 22.5971534,13.7569165 C23.0951113,14.6147197 23.6582301,15.4332401 24.2808788,16.2052629 C26.5019802,18.8339883 30.2338491,19.7142386 35.3831683,18.8123427 C36.5938737,18.6023013 37.782859,18.3152981 38.9324257,18.037915 C40.5091584,17.6194353 42.1116337,17.3075798 43.730198,17.1023484 C45.9850867,16.7656407 48.2858293,17.2506603 50.2116955,18.4684198 C50.3146658,18.5461835 50.4168317,18.6295587 50.5141707,18.7153389 L50.5511758,18.7482079 C51.2518565,19.3502735 52.3064975,19.2845354 52.9259283,18.5998962 C53.5453589,17.9152572 53.5019184,16.8626445 52.8285892,16.2309169 L52.7891707,16.1956425 C52.0699877,15.5478809 51.4014851,14.8512166 50.7490717,14.1769995 C48.6518565,11.9956144 46.4854579,9.74127583 42.6192451,9.13680515 C41.1993813,8.94680584 39.768255,8.85060362 38.3355199,8.84819852 C35.299505,8.7792537 32.4308167,8.71431726 30.4293316,6.77263581 C29.9514851,6.30765845 29.5042079,5.8178288 29.0681932,5.33200772 C27.8993193,3.90981823 26.4923267,2.70007545 24.908354,1.75729376 C22.6293316,0.576411646 20.0832301,-6.10622664e-16 17.516213,0.0841768853 C15.5219679,0.156328648 13.5438119,0.467382471 11.6251857,1.01172671 C10.6534035,1.27227432 9.69610143,1.5761175 8.74362619,1.89438197 C8.55136149,1.95931841 8.27623762,2.07957107 7.96652233,2.21986602 C7.67852718,2.35775586 7.38329198,2.48041384 7.08242574,2.58783954 C6.175,2.52129962 5.37617579,3.17787978 5.26837866,4.07817221 C5.16138614,4.9776628 5.78323015,5.80259693 6.68100242,5.95010699 C8.84579208,6.36858652 11.1280321,6.92174914 13.4714108,7.58394115 Z M17.5894183,3.47450337 C19.5659652,3.39192975 21.5304455,3.82724482 23.2865718,4.73715727 C24.528651,5.50998171 25.6323639,6.48322754 26.5534653,7.61761202 C27.0433787,8.15554258 27.53651,8.69427497 28.0650372,9.2041467 C31.0230198,12.0749812 34.8675124,12.1631665 38.2695545,12.2417317 C39.5518565,12.2401283 40.8325496,12.3227019 42.1043936,12.4886506 C43.1783415,12.6489876 44.2040222,13.042615 45.1090346,13.6414738 C44.5338491,13.6430771 43.9586634,13.6735412 43.3866955,13.7328658 C41.6168935,13.9541311 39.863985,14.2940456 38.1400372,14.7494028 C37.0290843,15.0171655 35.9293936,15.2849282 34.7999382,15.4821429 C30.9321164,16.1595667 28.2709778,15.6665305 26.8881188,14.0294894 C26.3772896,13.3865379 25.9163366,12.7067089 25.5076733,11.9956144 C25.2196783,11.5258268 24.9308788,11.056841 24.6211635,10.6022855 C21.9753094,6.73174982 18.2724009,5.4250032 14.3949258,4.32348775 L13.4239481,4.05412155 C14.7883045,3.7150087 16.1840348,3.52100101 17.5894183,3.47450337 Z" id="Shape" stroke="#FFFFFF" stroke-width="0.8" fill="#333333" fill-rule="nonzero"></path>
                            <path d="M12.5672031,27.8136633 C14.2058788,29.2615065 16.0529085,30.4584224 18.046349,31.3619215 C19.6793936,32.0385438 21.4290843,32.3904836 23.1980816,32.3976987 C25.5720297,32.4337745 27.8928836,31.7002327 29.8115098,30.3061023 C30.792141,29.5613367 31.6593441,28.6786814 32.3865718,27.6861953 C32.6657179,27.2596989 32.915099,26.8147636 33.1331065,26.3537946 C33.3591584,25.9256948 33.5940594,25.4607175 33.7501237,25.2081866 C34.2561263,24.6806777 34.3663366,23.8894147 34.0236387,23.2448598 C33.6809406,22.5995034 32.9625619,22.2459601 32.2401608,22.366213 C29.3417078,22.765452 26.3893564,22.4752421 23.6244431,21.5188316 C21.7516708,20.8830954 19.9271659,20.1150812 18.1637996,19.2204006 C17.4663366,18.8820894 16.7696783,18.5566053 16.0617575,18.2343278 C13.323391,17.1255972 10.3203589,16.8353873 7.41868822,17.398972 C5.83310649,17.6651315 4.27970297,18.0980414 2.78502486,18.6904866 C2.59195555,18.7738618 2.40290847,18.8676591 2.22029703,18.9718781 C2.04975248,19.0592619 1.85426975,19.1747046 1.68774742,19.2492612 C0.99993817,19.33905 0.435210345,19.8360947 0.260643564,20.5055017 C0.0249381703,21.4106043 0.570358859,22.3357488 1.47858921,22.5714443 C4.06330451,23.1638897 6.56837866,24.0593719 8.94152233,25.240254 C10.227042,25.9842178 11.4409654,26.8452277 12.5672031,27.8136633 Z M7.97537118,20.7428005 C10.2101485,20.2890468 12.5293936,20.4902698 14.6523516,21.3224188 C15.3321164,21.6342743 16.0126856,21.9557502 16.6924506,22.279631 C18.5990099,23.2424547 20.5707302,24.0689921 22.5939357,24.7544329 C24.8077971,25.4743461 27.1133663,25.874387 29.4406559,25.9409269 C28.9563738,26.5614311 28.393255,27.1178005 27.7657798,27.5948031 C25.2502475,29.2302408 22.0702352,29.4667379 19.3391089,28.221721 C17.6529703,27.435268 16.0899133,26.4075075 14.7014233,25.1713092 C13.415099,24.0689921 12.0258044,23.0917379 10.553651,22.2523736 C9.53762376,21.7152446 8.48861386,21.2438538 7.41225258,20.8406061 C7.60290847,20.8069353 7.78954213,20.7732646 7.9769802,20.7411972 L7.97537118,20.7428005 Z" id="Shape" stroke="#FFFFFF" stroke-width="0.8" fill="#333333" fill-rule="nonzero"></path>
                            <path d="M56.648,58.5507579 L59.2849609,58.5507579 L59.2849609,61.1355361 C59.2849609,62.0420116 60.0228593,62.7769703 60.9329609,62.7769703 C61.8430625,62.7769703 62.5809609,62.0420116 62.5809609,61.1355361 L62.5809609,58.5507579 L65.176078,58.5507579 C66.0861796,58.5507579 66.824078,57.8157993 66.824078,56.9093236 C66.824078,56.0028479 66.0861796,55.2678893 65.176078,55.2678893 L62.5809609,55.2678893 L62.5809609,52.6414343 C62.5809609,51.7349586 61.8430625,51 60.9329609,51 C60.0228593,51 59.2849609,51.7349586 59.2849609,52.6414343 L59.2849609,55.2678893 L56.648,55.2678893 C55.7378984,55.2678893 55,56.0028479 55,56.9093236 C55,57.8157993 55.7378984,58.5507579 56.648,58.5507579 L56.648,58.5507579 Z" id="Path" stroke="#FFD542" stroke-width="0.3" fill="#333333" fill-rule="nonzero"></path>
                            <path d="M73.3742343,67.1274121 L76.0111952,67.1274121 L76.0111952,69.7121904 C76.0111952,70.6186661 76.7490935,71.3536246 77.6591952,71.3536246 C78.5692968,71.3536246 79.3071952,70.6186661 79.3071952,69.7121904 L79.3071952,67.1274121 L81.944156,67.1274121 C82.8542577,67.1274121 83.592156,66.3924536 83.592156,65.4859779 C83.592156,64.5795024 82.8542577,63.8445436 81.944156,63.8445436 L79.3071952,63.8445436 L79.3071952,61.2180885 C79.3071952,60.3116128 78.5692968,59.5766543 77.6591952,59.5766543 C76.7490935,59.5766543 76.0111952,60.3116128 76.0111952,61.2180885 L76.0111952,63.8445436 L73.3742343,63.8445436 C72.4641327,63.8445436 71.7262343,64.5795024 71.7262343,65.4859779 C71.7262343,66.3924536 72.4641327,67.1274121 73.3742343,67.1274121 Z" id="Path" stroke="#FFD542" stroke-width="0.3" fill="#333333" fill-rule="nonzero"></path>
                        </g>
                    </g>
                </g>
            </g>
        </g>
    </g>
</svg>