<?xml version="1.0" encoding="UTF-8"?>
<svg width="19px" height="12px" viewBox="0 0 19 12" version="1.1" xmlns="http://www.w3.org/2000/svg" xmlns:xlink="http://www.w3.org/1999/xlink">
    <!-- Generator: Sketch 55.2 (78181) - https://sketchapp.com -->
    <title>icon/navigation/Expand</title>
    <desc>Created with Sketch.</desc>
    <g id="14.-Order-Review-Page---mobile" stroke="none" stroke-width="1" fill="none" fill-rule="evenodd">
        <g id="mobile:order-review-pickup-address" transform="translate(-6.000000, -138.000000)">
            <g id="icon/navigation/Expand" transform="translate(4.000000, 132.000000)">
                <g id="icon/navigation/forwards">
                    <polygon id="Bounds" opacity="0.87" points="0 0 24 0 24 24 0 24"></polygon>
                    <path d="M16.62,2.99 L16.62,2.99 C16.13,2.5 15.34,2.5 14.85,2.99 L6.54,11.3 C6.15,11.69 6.15,12.32 6.54,12.71 L14.85,21.02 C15.34,21.51 16.13,21.51 16.62,21.02 L16.62,21.02 C17.11,20.53 17.11,19.74 16.62,19.25 L9.38,12 L16.63,4.75 C17.11,4.27 17.11,3.47 16.62,2.99 Z" id="Shape" fill="#4F7942" transform="translate(11.618130, 12.005000) scale(-1, -1) rotate(90.000000) translate(-11.618130, -12.005000) "></path>
                </g>
            </g>
        </g>
    </g>
</svg>