<?xml version="1.0" encoding="UTF-8"?>
<svg width="26px" height="18px" viewBox="0 0 26 18" version="1.1" xmlns="http://www.w3.org/2000/svg" xmlns:xlink="http://www.w3.org/1999/xlink">
    <!-- Generator: Sketch 58 (84663) - https://sketch.com -->
    <title>credit-card (3)</title>
    <desc>Created with Sketch.</desc>
    <g id="Navigation-Panel---desktop" stroke="none" stroke-width="1" fill="none" fill-rule="evenodd">
        <g id="01.-delivery-tracker-default" transform="translate(-978.000000, -501.000000)">
            <g id="Group-13" transform="translate(921.000000, 80.000000)">
                <g id="Group-4" transform="translate(46.000000, 414.000000)">
                    <g id="credit-card-(3)" transform="translate(11.000000, 7.000000)">
                        <rect id="Rectangle" fill="#FFD542" x="8" y="1" width="17" height="11"></rect>
                        <path d="M22.93335,0.01665 L2.66665,0.01665 C1.1968,0.01665 0,1.21345 0,2.68335 L0,14.4167 C0,15.88655 1.1968,17.08335 2.66665,17.08335 L22.9333,17.08335 C24.40315,17.08335 25.59995,15.88655 25.59995,14.4167 L25.59995,2.68335 C25.59995,1.21345 24.4032,0.01665 22.93335,0.01665 Z M24.53335,14.41665 C24.53335,15.2988 23.8155,16.01665 22.93335,16.01665 L2.66665,16.01665 C1.7845,16.01665 1.06665,15.2988 1.06665,14.41665 L1.06665,2.68335 C1.06665,1.8012 1.7845,1.08335 2.66665,1.08335 L22.9333,1.08335 C23.81545,1.08335 24.53335,1.8012 24.53335,2.68335 L24.53335,14.41665 L24.53335,14.41665 Z" id="Shape" fill="#333333" fill-rule="nonzero"></path>
                        <path d="M25.06665,3.21665 L0.53335,3.21665 C0.23895,3.21665 0,3.4556 0,3.75 L0,6.95 C0,7.2444 0.23895,7.48335 0.53335,7.48335 L25.0667,7.48335 C25.3611,7.48335 25.60005,7.2444 25.60005,6.95 L25.60005,3.75 C25.60005,3.4556 25.36105,3.21665 25.06665,3.21665 Z M24.53335,6.41665 L1.06665,6.41665 L1.06665,4.2833 L24.53335,4.2833 L24.53335,6.41665 L24.53335,6.41665 Z" id="Shape" fill="#333333" fill-rule="nonzero"></path>
                        <path d="M10.13335,10.68335 L3.73335,10.68335 C3.43895,10.68335 3.2,10.9223 3.2,11.2167 C3.2,11.5111 3.43895,11.75 3.73335,11.75 L10.13335,11.75 C10.42775,11.75 10.6667,11.51105 10.6667,11.21665 C10.6667,10.92225 10.42775,10.68335 10.13335,10.68335 Z" id="Path" fill="#333333" fill-rule="nonzero"></path>
                        <path d="M10.13335,12.81665 L3.73335,12.81665 C3.43895,12.81665 3.2,13.0556 3.2,13.35 C3.2,13.6444 3.43895,13.88335 3.73335,13.88335 L10.13335,13.88335 C10.42775,13.88335 10.6667,13.6444 10.6667,13.35 C10.6667,13.0556 10.42775,12.81665 10.13335,12.81665 Z" id="Path" fill="#333333" fill-rule="nonzero"></path>
                        <path d="M20.8,9.61665 L19.73335,9.61665 C18.8512,9.61665 18.13335,10.3345 18.13335,11.21665 L18.13335,12.2833 C18.13335,13.16545 18.8512,13.8833 19.73335,13.8833 L20.8,13.8833 C21.68215,13.8833 22.4,13.16545 22.4,12.2833 L22.4,11.21665 C22.4,10.33455 21.68215,9.61665 20.8,9.61665 Z M21.33335,12.28335 C21.33335,12.57775 21.0944,12.8167 20.8,12.8167 L19.73335,12.8167 C19.43895,12.8167 19.2,12.57775 19.2,12.28335 L19.2,11.2167 C19.2,10.9223 19.43895,10.68335 19.73335,10.68335 L20.8,10.68335 C21.0944,10.68335 21.33335,10.9223 21.33335,11.2167 L21.33335,12.28335 Z" id="Shape" fill="#333333" fill-rule="nonzero"></path>
                    </g>
                </g>
            </g>
        </g>
    </g>
</svg>