<?xml version="1.0" encoding="UTF-8"?>
<svg width="26px" height="26px" viewBox="0 0 26 26" version="1.1" xmlns="http://www.w3.org/2000/svg" xmlns:xlink="http://www.w3.org/1999/xlink">
    <!-- Generator: Sketch 58 (84663) - https://sketch.com -->
    <title>settings (3)</title>
    <desc>Created with Sketch.</desc>
    <g id="Navigation-Panel---desktop" stroke="none" stroke-width="1" fill="none" fill-rule="evenodd">
        <g id="01.-delivery-tracker-default" transform="translate(-981.000000, -796.000000)">
            <g id="Group-13" transform="translate(921.000000, 80.000000)">
                <g id="Group-8" transform="translate(46.000000, 712.000000)">
                    <g id="settings-(3)" transform="translate(14.000000, 4.000000)">
                        <path d="M24.5267979,10.2114531 L22.712398,9.90365315 C22.5233981,9.2934532 22.2803981,8.70485325 21.9833981,8.1432533 L23.052598,6.64745343 C23.506198,6.01025348 23.435998,5.14085356 22.879798,4.5900536 L21.2705982,2.98085374 C20.9681982,2.67845377 20.5685982,2.51105378 20.1419983,2.51105378 C19.8071983,2.51105378 19.4885983,2.61365377 19.2185983,2.80805376 L17.7173985,3.87725367 C17.1341985,3.56945369 16.5239986,3.31565371 15.8921986,3.12665373 L15.5897987,1.33385389 C15.4601987,0.561653952 14.7959987,5.39999954e-05 14.0129988,5.39999954e-05 L11.739599,5.39999954e-05 C10.9565991,5.39999954e-05 10.2923991,0.561653952 10.1627991,1.33385389 L9.84959915,3.16985373 C9.2447992,3.35885371 8.65619925,3.60725369 8.0945993,3.90965366 L6.60959943,2.84045376 C6.33959945,2.64605377 6.01559948,2.54345378 5.68079951,2.54345378 C5.25419955,2.54345378 4.84919958,2.71085377 4.55219961,3.01325374 L2.93759975,4.6224536 C2.38679979,5.17325355 2.3111998,6.04265348 2.76479976,6.67985342 L3.84479967,8.19725329 C3.54779969,8.76425325 3.31019972,9.35285319 3.12659973,9.96305314 L1.33379989,10.2654531 C0.561599952,10.3950531 -2.84217094e-14,11.059253 -2.84217094e-14,11.842253 L-2.84217094e-14,14.1156528 C-2.84217094e-14,14.8986527 0.561599952,15.5628527 1.33379989,15.6924526 L3.16979973,16.0056526 C3.35879971,16.6104526 3.60719969,17.1990525 3.90959966,17.7606525 L2.84579975,19.2402523 C2.39219979,19.8774523 2.46239979,20.7468522 3.01859974,21.2976522 L4.6277996,22.906852 C4.93019958,23.209252 5.32979954,23.376652 5.7563995,23.376652 C6.09119948,23.376652 6.40979945,23.274052 6.67979942,23.079652 L8.19719929,21.9996521 C8.74259925,22.2858521 9.3149992,22.5180521 9.90359915,22.701652 L10.2059991,24.5160519 C10.3355991,25.2882518 10.9997991,25.8498518 11.782799,25.8498518 L14.0615988,25.8498518 C14.8445987,25.8498518 15.5087987,25.2882518 15.6383987,24.5160519 L15.9461986,22.701652 C16.5563986,22.5126521 17.1449985,22.2696521 17.7065985,21.9726521 L19.2023983,23.041852 C19.4723983,23.236252 19.7963983,23.338852 20.1311983,23.338852 L20.1311983,23.338852 C20.5577982,23.338852 20.9573982,23.171452 21.2597982,22.869052 L22.868998,21.2598522 C23.419798,20.7090522 23.495398,19.8396523 23.041798,19.2024523 L21.9725981,17.7012525 C22.2695981,17.1342525 22.5179981,16.5456526 22.701598,15.9408526 L24.5159979,15.6384527 C25.2881978,15.5088527 25.8499509,14.8446527 25.8499509,14.0616528 L25.8499509,11.788253 C25.8605978,11.0052531 25.2989978,10.3410531 24.5267979,10.2114531 Z M24.4025979,14.0616528 C24.4025979,14.1318528 24.3539979,14.1912528 24.2837979,14.2020528 L22.0157981,14.5800527 C21.7295981,14.6286527 21.5027981,14.8392527 21.4325982,15.1146527 C21.2273982,15.9084526 20.9141982,16.6698526 20.4929982,17.3772525 C20.3471982,17.6256525 20.3579982,17.9334525 20.5253982,18.1710524 L21.8591981,20.0502523 C21.8969981,20.1042523 21.8915981,20.1852523 21.8429981,20.2338523 L20.2337983,21.8430521 C20.1959983,21.8808521 20.1581983,21.8862521 20.1311983,21.8862521 C20.0987983,21.8862521 20.0717983,21.8754521 20.0501983,21.8592521 L18.1763984,20.5254522 C17.9441985,20.3580522 17.6309985,20.3472522 17.3825985,20.4930522 C16.6751986,20.9142522 15.9137986,21.2274522 15.1199987,21.4326522 C14.8391987,21.5028521 14.6285987,21.7350521 14.5853987,22.0158521 L14.2019988,24.2838519 C14.1911988,24.3540519 14.1317988,24.4026519 14.0615988,24.4026519 L11.788199,24.4026519 C11.717999,24.4026519 11.658599,24.3540519 11.647799,24.2838519 L11.269799,22.0158521 C11.221199,21.7296521 11.0105991,21.5028521 10.7351991,21.4326522 C9.96299914,21.2328522 9.21779921,20.9250522 8.52119927,20.5254522 C8.40779928,20.4606522 8.27819929,20.4282522 8.1539993,20.4282522 C8.00819931,20.4282522 7.85699932,20.4714522 7.73279933,20.5632522 L5.8427995,21.9078521 C5.8157995,21.9240521 5.7887995,21.9348521 5.7617995,21.9348521 C5.74019951,21.9348521 5.69699951,21.9294521 5.65919951,21.8916521 L4.04999965,20.2824523 C4.00139966,20.2338523 3.99599966,20.1582523 4.03379965,20.0988523 L5.36219954,18.2358524 C5.52959952,17.9982525 5.54039952,17.6850525 5.39459954,17.4366525 C4.97339957,16.7346526 4.6493996,15.9732526 4.44419962,15.1794527 C4.36859962,14.9040527 4.14179964,14.6934527 3.86099967,14.6448527 L1.57679986,14.2560528 C1.50659987,14.2452528 1.45799987,14.1858528 1.45799987,14.1156528 L1.45799987,11.842253 C1.45799987,11.772053 1.50659987,11.712653 1.57679986,11.701853 L3.82859967,11.323853 C4.11479965,11.275253 4.34699963,11.064653 4.41719962,10.7838531 C4.6169996,9.99005314 4.92479958,9.22325321 5.34059954,8.51585327 C5.48639953,8.26745329 5.47019953,7.95965331 5.30279954,7.72745333 L3.95819966,5.8374535 C3.92039966,5.7834535 3.92579966,5.70245351 3.97439966,5.65385351 L5.58359952,4.04465365 C5.62139952,4.00685366 5.65919951,4.00145366 5.68619951,4.00145366 C5.71859951,4.00145366 5.74559951,4.01225365 5.7671995,4.02845365 L7.63019934,5.35685354 C7.86779932,5.52425352 8.1809993,5.53505352 8.42939927,5.38925354 C9.13139921,4.96805357 9.89279915,4.6440536 10.6865991,4.43885362 C10.9619991,4.36325362 11.172599,4.13645364 11.221199,3.85565367 L11.609999,1.57145386 C11.620799,1.50125387 11.680199,1.45265387 11.750399,1.45265387 L14.0237988,1.45265387 C14.0939988,1.45265387 14.1533988,1.50125387 14.1641988,1.57145386 L14.5421987,3.82325367 C14.5907987,4.10945365 14.8013987,4.34165363 15.0821987,4.41185362 C15.8975986,4.6170536 16.6751986,4.93565358 17.3987985,5.36225354 C17.6471985,5.50805353 17.9549985,5.49725353 18.1925984,5.32985354 L20.0555983,3.99065366 C20.0825983,3.97445366 20.1095983,3.96365366 20.1365983,3.96365366 C20.1581983,3.96365366 20.2013983,3.96905366 20.2391983,4.00685366 L21.8483981,5.61605352 C21.8969981,5.66465351 21.9023981,5.74025351 21.8645981,5.7996535 L20.5307982,7.67345334 C20.3633982,7.90565332 20.3525982,8.21885329 20.4983982,8.46725327 C20.9195982,9.17465321 21.2327982,9.93605314 21.4379982,10.7298531 C21.5081981,11.0106531 21.7403981,11.221253 22.0211981,11.264453 L24.2891979,11.647853 C24.3593979,11.658653 24.4079979,11.718053 24.4079979,11.788253 L24.4079979,14.0616528 L24.4025979,14.0616528 L24.4025979,14.0616528 Z" id="Shape" fill="#333333" fill-rule="nonzero"></path>
                        <circle id="Oval" fill="#FFD542" cx="10" cy="13" r="6"></circle>
                        <path d="M12.9275989,7.34405337 C9.84959915,7.34405337 7.34939937,9.84425315 7.34939937,12.9222529 C7.34939937,16.0002526 9.84959915,18.5004524 12.9275989,18.5004524 C16.0055986,18.5004524 18.5057984,16.0002526 18.5057984,12.9222529 C18.5057984,9.84425315 16.0055986,7.34405337 12.9275989,7.34405337 Z M12.9275989,17.0424525 C10.6541991,17.0424525 8.80739924,15.1956527 8.80739924,12.9222529 C8.80739924,10.6488531 10.6541991,8.80205324 12.9275989,8.80205324 C15.2009987,8.80205324 17.0477985,10.6488531 17.0477985,12.9222529 C17.0477985,15.1956527 15.2009987,17.0424525 12.9275989,17.0424525 Z" id="Shape" fill="#333333" fill-rule="nonzero"></path>
                    </g>
                </g>
            </g>
        </g>
    </g>
</svg>