<?xml version="1.0" encoding="UTF-8"?>
<svg width="21px" height="25px" viewBox="0 0 21 25" version="1.1" xmlns="http://www.w3.org/2000/svg" xmlns:xlink="http://www.w3.org/1999/xlink">
    <!-- Generator: Sketch 58 (84663) - https://sketch.com -->
    <title>avatar</title>
    <desc>Created with Sketch.</desc>
    <g id="Navigation-Panel---desktop" stroke="none" stroke-width="1" fill="none" fill-rule="evenodd">
        <g id="01.-delivery-tracker-default" transform="translate(-977.000000, -348.000000)">
            <g id="Group-13" transform="translate(921.000000, 80.000000)">
                <g id="Group-2" transform="translate(46.000000, 263.000000)">
                    <g id="avatar" transform="translate(10.000000, 5.000000)">
                        <path d="M15.5,23 C17.9852814,23 20,20.9852814 20,18.5 C20,16.8989279 19.1457698,16.0589997 17.8786728,15.5007576 C17.5387383,15.3509934 17.1690885,15.221503 16.7782455,15.1030287 C16.3645235,14.9776192 15.9546765,14 15.5,14 C14.4382416,14 10.3771711,11.7116932 10.5,12.5 C11.5490609,19.2327949 3.09812184,20.3867443 3.09812184,21.8102673 C3.09812184,24.2955487 13.0147186,23 15.5,23 Z" id="Oval" fill="#FFD542"></path>
                        <path d="M10.1850002,13.0100002 C10.2100002,13.0100002 10.2350002,13.0100002 10.2650002,13.0100002 C10.2750002,13.0100002 10.2850002,13.0100002 10.2950002,13.0100002 C10.3100002,13.0100002 10.3300002,13.0100002 10.3450002,13.0100002 C11.8100002,12.9850002 12.9950002,12.4700002 13.8700002,11.4850002 C15.7950002,9.31500014 15.4750002,5.59500008 15.4400002,5.24000008 C15.3150002,2.57500004 14.0550002,1.30000002 13.0150002,0.705000011 C12.2400002,0.260000004 11.3350002,0.0200000003 10.3250002,0 L10.2900002,0 C10.2850002,0 10.2750002,0 10.2700002,0 L10.2400002,0 C9.68500014,0 8.59500013,0.0900000013 7.55000011,0.68500001 C6.5000001,1.28000002 5.22000008,2.55500004 5.09500008,5.24000008 C5.06000008,5.59500008 4.74000007,9.31500014 6.6650001,11.4850002 C7.53500011,12.4700002 8.72000013,12.9850002 10.1850002,13.0100002 Z M6.4300001,5.36500008 C6.4300001,5.35000008 6.4350001,5.33500008 6.4350001,5.32500008 C6.6000001,1.74000003 9.14500014,1.35500002 10.2350002,1.35500002 L10.2550002,1.35500002 C10.2650002,1.35500002 10.2800002,1.35500002 10.2950002,1.35500002 C11.6450002,1.38500002 13.9400002,1.93500003 14.0950002,5.32500008 C14.0950002,5.34000008 14.0950002,5.35500002 14.1000002,5.36500008 C14.1050002,5.40000008 14.4550002,8.80000013 12.8650002,10.5900002 C12.2350002,11.3000002 11.3950002,11.6500002 10.2900002,11.6600002 C10.2800002,11.6600002 10.2750002,11.6600002 10.2650002,11.6600002 L10.2650002,11.6600002 C10.2550002,11.6600002 10.2500002,11.6600002 10.2400002,11.6600002 C9.14000014,11.6500002 8.29500012,11.3000002 7.67000011,10.5900002 C6.08500009,8.81000013 6.4250001,5.39500008 6.4300001,5.36500008 Z" id="Shape" fill="#000000" fill-rule="nonzero"></path>
                        <path d="M20.5400003,19.1800003 C20.5400003,19.1750003 20.5400003,19.1700003 20.5400003,19.1650003 C20.5400003,19.1250003 20.5350003,19.0850003 20.5350003,19.0400003 C20.5050003,18.0500003 20.4400003,15.7350002 18.2700003,14.9950002 C18.2550003,14.9900002 18.2350003,14.9850002 18.2200003,14.9800002 C15.9650002,14.4050002 14.0900002,13.1050002 14.0700002,13.0900002 C13.7650002,12.8750002 13.3450002,12.9500002 13.1300002,13.2550002 C12.9150002,13.5600002 12.9900002,13.9800002 13.2950002,14.1950002 C13.3800002,14.2550002 15.3700002,15.6400002 17.8600003,16.2800002 C19.0250003,16.6950002 19.1550003,17.9400003 19.1900003,19.0800003 C19.1900003,19.1250003 19.1900003,19.1650003 19.1950003,19.2050003 C19.2000003,19.6550003 19.1700003,20.3500003 19.0900003,20.7500003 C18.2800003,21.2100003 15.1050002,22.8000003 10.2750002,22.8000003 C5.46500008,22.8000003 2.27000003,21.2050003 1.45500002,20.7450003 C1.37500002,20.3450003 1.34000002,19.6500003 1.35000002,19.2000003 C1.35000002,19.1600003 1.35500002,19.1200003 1.35500002,19.0750003 C1.39000002,17.9350003 1.52000002,16.6900002 2.68500004,16.2750002 C5.17500008,15.6350002 7.16500011,14.2450002 7.25000011,14.1900002 C7.55500011,13.9750002 7.63000011,13.5550002 7.41500011,13.2500002 C7.20000011,12.9450002 6.7800001,12.8700002 6.4750001,13.0850002 C6.4550001,13.1000002 4.59000007,14.4000002 2.32500003,14.9750002 C2.30500003,14.9800002 2.29000003,14.9850002 2.27500003,14.9900002 C0.105000002,15.7350002 0.0400000006,18.0500003 0.0100000001,19.0350003 C0.0100000001,19.0800003 0.0100000001,19.1200003 0.00500000007,19.1600003 C0.00500000007,19.1650003 0.00500000007,19.1700003 0.00500000007,19.1750003 C-1.73472348e-18,19.4350003 -0.00500000007,20.7700003 0.260000004,21.4400003 C0.310000005,21.5700003 0.400000006,21.6800003 0.520000008,21.7550003 C0.67000001,21.8550003 4.26500006,24.1450004 10.2800002,24.1450004 C16.2950002,24.1450004 19.8900003,21.8500003 20.0400003,21.7550003 C20.1550003,21.6800003 20.2500003,21.5700003 20.3000003,21.4400003 C20.5500003,20.7750003 20.5450003,19.4400003 20.5400003,19.1800003 Z" id="Path" fill="#000000" fill-rule="nonzero"></path>
                    </g>
                </g>
            </g>
        </g>
    </g>
</svg>