<?xml version="1.0" encoding="UTF-8"?>
<svg width="24px" height="34px" viewBox="0 0 24 34" version="1.1" xmlns="http://www.w3.org/2000/svg" xmlns:xlink="http://www.w3.org/1999/xlink">
    <!-- Generator: Sketch 58 (84663) - https://sketch.com -->
    <title>maps-and-location</title>
    <desc>Created with Sketch.</desc>
    <g id="Page-1" stroke="none" stroke-width="1" fill="none" fill-rule="evenodd">
        <g id="GoDysh_Splash_V03_121219" transform="translate(-278.000000, -613.000000)" fill-rule="nonzero" stroke-width="0.2">
            <g id="Group-3" transform="translate(233.000000, 518.000000)">
                <g id="Group" transform="translate(46.000000, 96.000000)">
                    <g id="maps-and-location">
                        <path d="M11,6.36585075 C9.14082401,6.36585075 7.4646978,7.46801002 6.75320684,9.15846813 C6.04171588,10.8489262 6.43497846,12.7947387 7.74961441,14.088564 C9.06425036,15.3823894 11.0413603,15.7694266 12.7590087,15.0691985 C14.4766571,14.3689704 15.5965441,12.7193772 15.5965441,10.8896318 C15.5936469,8.39239855 13.5374002,6.3687021 11,6.36585075 L11,6.36585075 Z M11,14.4582687 C8.99739519,14.4582687 7.37388235,12.8606151 7.37388235,10.8897114 C7.37388235,8.91880775 8.99723343,7.32099503 10.9998382,7.32099503 C13.002443,7.32099503 14.6259559,8.91864855 14.6259559,10.8895522 C14.6237718,12.8595467 13.0016809,14.4560312 11,14.4582687 L11,14.4582687 Z" id="Shape" stroke="#FFAA00" fill="#FFAA03"></path>
                        <path d="M11,0.063681592 C4.93455147,0.063681592 0,4.9201194 0,10.8895522 C0.000416417443,15.8558797 3.43315605,20.1854272 8.32788971,21.3931144 L10.5253015,31.5582886 C10.5729243,31.7788894 10.7708478,31.9366422 11,31.9366422 C11.2291522,31.9366422 11.4270757,31.7788894 11.4746985,31.5582886 L13.6721103,21.3931144 C18.5668439,20.1854272 21.9995836,15.8558797 22,10.8895522 C22,4.9201194 17.0654485,0.063681592 11,0.063681592 Z M18.7818529,17.1168159 C17.3509817,18.8453933 15.3693655,20.0482833 13.1576176,20.5308657 C12.9714914,20.5709807 12.8264388,20.7145778 12.7867721,20.89799 L11,29.1635423 L9.21322794,20.89799 C9.17356121,20.7145778 9.02850856,20.5709807 8.84238235,20.5308657 C4.46079289,19.5818515 1.25230656,15.8848236 0.985140853,11.4772378 C0.717975146,7.06965202 3.45710475,3.02343302 7.69297769,1.56847816 C11.9288506,0.113523311 16.6313028,1.60367757 19.2087825,5.21770732 C21.7862622,8.83173708 21.6119265,13.6907105 18.7818529,17.1168159 Z" id="Shape" stroke="#333333" fill="#333333"></path>
                    </g>
                </g>
            </g>
        </g>
    </g>
</svg>