<?xml version="1.0" encoding="UTF-8"?>
<svg width="28px" height="28px" viewBox="0 0 28 28" version="1.1" xmlns="http://www.w3.org/2000/svg" xmlns:xlink="http://www.w3.org/1999/xlink">
    <!-- Generator: Sketch 58 (84663) - https://sketch.com -->
    <title>food-and-restaurant</title>
    <desc>Created with Sketch.</desc>
    <g id="Page-1" stroke="none" stroke-width="1" fill="none" fill-rule="evenodd">
        <g id="GoDysh_Splash_V03_121219" transform="translate(-1162.000000, -749.000000)">
            <g id="Group-32" transform="translate(1115.000000, 663.000000)">
                <g id="Group-29" transform="translate(48.000000, 86.000000)">
                    <g id="food-and-restaurant" transform="translate(0.000000, 1.000000)">
                        <path d="M0.409071181,0.25 L25.5,0.25 L25.5,11.7 C25.3478009,11.5121238 24.8652344,11.7749566 24.0523003,12.4884983 C22.8328993,13.5588108 21.9528646,13.6438802 20.8,12.4884983 C19.6471354,11.3331163 18.5396267,11.6892361 17.7666667,12.4884983 C16.9937066,13.2877604 16.1351997,13.9516059 14.6818576,12.4884983 C13.2285156,11.0253906 12.1333333,12.0904948 11.2666667,13 C10.4,13.9095052 8.60010851,13 7.65711806,12.1333333 C6.7141276,11.2666667 5.23263889,12.1623264 4.78298611,13 C4.33333333,13.8376736 2.6,13 1.8578559,12.4884983 C1.36309317,12.1474971 0.880164931,11.766276 0.409071181,11.3448351 L0.409071181,0.25 Z" id="Path-25" fill="#FFD542"></path>
                        <polygon id="Rectangle" fill="#FFD542" points="2 24 4.70570144 24 4.70570144 25.5 11.7044262 25.5 11.7564899 24 23.5 24 23.5 25.5 2 25.5"></polygon>
                        <path d="M25.5666667,0 C25.7793837,0 25.9563239,0.15330503 25.9930179,0.355445527 L26,0.433333333 L26,11.7 C26,11.9393067 25.8059733,12.1333333 25.5666667,12.1333333 C25.0269235,12.1333333 24.7382888,12.397207 24.4144582,12.7508825 L24.3159668,12.8595052 L24.2666667,12.9132487 L24.2666667,25.5666667 C24.2666667,25.7793837 24.1133616,25.9563239 23.9112211,25.9930179 L23.8333333,26 L2.16666667,26 C1.95394964,26 1.77700939,25.846695 1.74031546,25.6445545 L1.73333333,25.5666667 L1.73333333,12.9132487 L1.68255208,12.8578125 C1.31608073,12.4526204 1.0266276,12.1333333 0.433333333,12.1333333 C0.220616307,12.1333333 0.0436760519,11.9800283 0.00698213118,11.7778878 L0,11.7 L0,0.433333333 C0,0.220616307 0.15330503,0.0436760519 0.355445527,0.00698213118 L0.433333333,0 L25.5666667,0 Z M4.33333333,24.2666667 L2.6,24.2666667 L2.6,25.1333333 L4.33333333,25.1333333 L4.33333333,24.2666667 Z M10.5443034,16.6 L5.92236331,16.6 C5.55026367,16.6 5.2628291,16.785269 5.20906318,16.9714807 L5.2,17.0333333 L5.2,25.1333333 L11.2666667,25.1333333 L11.2666667,17.0333333 C11.2666667,16.8287272 10.9577474,16.6 10.5443034,16.6 Z M23.4,24.2666667 L12.1333333,24.2666667 L12.1333333,25.1333333 L23.4,25.1333333 L23.4,24.2666667 Z M19.2795248,12.1333333 C18.6866536,12.1333333 18.3967773,12.4526204 18.0300944,12.8578125 C17.6071289,13.4885579 16.8974609,13.8670898 16.1380697,13.8670898 C15.3784668,13.8670898 14.6690104,13.4885579 14.2458333,12.8578125 C13.8787272,12.4526204 13.5884277,12.1333333 12.9957682,12.1333333 C12.4028971,12.1333333 12.1130208,12.4526204 11.7463379,12.8573893 C11.3085612,13.4716308 10.6084147,13.8452962 9.85452477,13.8666667 C9.10084635,13.8452962 8.40091146,13.4718425 7.96334635,12.8578125 C7.59666343,12.4526204 7.3067871,12.1333333 6.7141276,12.1333333 C6.12125648,12.1333333 5.83180336,12.4526204 5.46512043,12.8573893 C5.0277669,13.4718425 4.32762043,13.8452962 3.57373044,13.8666667 C3.30289711,13.8700521 3.0346367,13.8199479 2.78422421,13.7199292 L2.6,13.635612 L2.6,23.4 L4.33333333,23.4 L4.33333333,17.0333333 C4.33333333,16.3468903 4.95128315,15.8010182 5.76716791,15.7391732 L5.92236331,15.7333333 L10.5443034,15.7333333 C11.3832893,15.7333333 12.0505912,16.2388264 12.1261943,16.9063564 L12.1333333,17.0333333 L12.1333333,23.4 L23.4,23.4 L23.4,13.6343425 C23.0984863,13.7911296 22.7631185,13.8708984 22.4233073,13.8666667 C21.6689942,13.8452962 20.9684245,13.4718425 20.530013,12.8578125 C20.1629069,12.4526204 19.8721843,12.1333333 19.2795248,12.1333333 Z M20.25,16.5 C20.3683385,16.5 20.4674845,16.5822405 20.4933968,16.6926803 L20.5,16.75 L20.5,20.25 C20.5,20.3683385 20.4177595,20.4674845 20.3073197,20.4933968 L20.25,20.5 L15.75,20.5 C15.6316615,20.5 15.5325155,20.4177595 15.5066032,20.3073197 L15.5,20.25 L15.5,16.75 C15.5,16.6316615 15.5822405,16.5325155 15.6926803,16.5066032 L15.75,16.5 L20.25,16.5 Z M20,17 L16,17 L16,20 L20,20 L20,17 Z M8.96666667,18.0666667 C9.17938369,18.0666667 9.35632395,18.2199717 9.39301787,18.4221122 L9.4,18.5 L9.4,19.3666667 C9.4,19.6059733 9.20597332,19.8 8.96666667,19.8 C8.75394964,19.8 8.57700939,19.646695 8.54031546,19.4445545 L8.53333333,19.3666667 L8.53333333,18.5 C8.53333333,18.2606933 8.72736001,18.0666667 8.96666667,18.0666667 Z M25.1333333,0.866666667 L0.866666667,0.866666667 L0.866666667,11.3068685 C1.45001626,11.4520182 1.9650228,11.7943685 2.3249349,12.275944 C2.69140625,12.6807129 2.98043622,13 3.57373044,13 C4.16702477,13 4.45647789,12.6807129 4.82294919,12.2755208 C5.26051435,11.6614909 5.96044919,11.2880371 6.7141276,11.2666667 C7.46801759,11.2880371 8.16816406,11.6614909 8.60551759,12.275944 C8.97220052,12.6807129 9.26123044,13 9.85452477,13 C10.4476074,13 10.7374837,12.6807129 11.1041667,12.2755208 C11.5273438,11.644987 12.2368001,11.2666667 12.9961914,11.2666667 C13.7553711,11.2666667 14.4648275,11.644987 14.8880046,12.2755208 C15.2551107,12.6807129 15.544987,13 16.1382812,13 C16.7313639,13 17.0212402,12.6807129 17.3879232,12.2755208 C17.8111002,11.644987 18.5205567,11.2666667 19.2799479,11.2666667 C20.0391276,11.2666667 20.748584,11.644987 21.1717611,12.2755208 C21.5392904,12.6802897 21.8295898,13 22.4233073,13 C23.0170248,13 23.306901,12.6807129 23.6737956,12.2755208 C23.9942817,11.8476418 24.4371443,11.5296007 24.9414553,11.3621155 L25.1333333,11.3064453 L25.1333333,0.866666667 Z M12.8508301,3.66453449 C13.325,3.5297526 13.8342936,3.60423177 14.2496419,3.86956377 C15.2229492,4.49840497 15.4605631,6.00851238 14.7904623,7.30576169 C14.4673665,7.99109699 13.8721679,8.50970052 13.1491699,8.73588866 C12.9925944,8.77799479 12.8313639,8.79957685 12.6692871,8.80002268 C12.3434407,8.80169271 12.0241536,8.70859375 11.7503581,8.53212893 C10.7762044,7.90349936 10.5394369,6.39466146 11.2095377,5.09466146 C11.5326334,4.40932616 12.1278321,3.89072268 12.8508301,3.66453449 Z M14.2337728,5.2766276 L12.3083171,7.84361979 C12.5010742,7.93523762 12.72028,7.95449219 12.925944,7.89778646 C13.4102702,7.73168947 13.8057292,7.37452801 14.0200683,6.90945637 C14.2870931,6.40904948 14.3630534,5.8286621 14.2337728,5.2766276 L14.2337728,5.2766276 Z M13.3319824,4.46708982 C13.2448079,4.46751302 13.1582682,4.4791504 13.074056,4.50179039 C12.5897298,4.66788738 12.1942708,5.02504884 11.9799317,5.49012043 C11.7124837,5.99095052 11.6365234,6.57197268 11.7662272,7.1246419 L11.7662272,7.1246419 L13.6946452,4.55384115 C13.5820801,4.49734699 13.4578776,4.4677246 13.3319824,4.46708982 Z" id="Combined-Shape" stroke="#333333" stroke-width="0.5" fill="#333333" fill-rule="nonzero"></path>
                    </g>
                </g>
            </g>
        </g>
    </g>
</svg>