<?xml version="1.0" encoding="UTF-8"?>
<svg width="200px" height="200px" viewBox="0 0 200 200" version="1.1" xmlns="http://www.w3.org/2000/svg" xmlns:xlink="http://www.w3.org/1999/xlink">
    <!-- Generator: Sketch 58 (84663) - https://sketch.com -->
    <title>Group 39</title>
    <desc>Created with Sketch.</desc>
    <defs>
        <circle id="path-1" cx="87" cy="87" r="79"></circle>
        <filter x="-21.2%" y="-18.7%" width="142.4%" height="142.4%" filterUnits="objectBoundingBox" id="filter-2">
            <feOffset dx="0" dy="4" in="SourceAlpha" result="shadowOffsetOuter1"></feOffset>
            <feGaussianBlur stdDeviation="10.5" in="shadowOffsetOuter1" result="shadowBlurOuter1"></feGaussianBlur>
            <feColorMatrix values="0 0 0 0 0   0 0 0 0 0   0 0 0 0 0  0 0 0 0.0907998252 0" type="matrix" in="shadowBlurOuter1"></feColorMatrix>
        </filter>
    </defs>
    <g id="Page-1" stroke="none" stroke-width="1" fill="none" fill-rule="evenodd">
        <g id="GoDysh_Splash_V03_121219" transform="translate(-689.000000, -2378.000000)">
            <g id="Bitmap" transform="translate(265.000000, 2285.000000)">
                <g id="Rectangle-+-Bitmap-Copy-+-Rectangle-Copy-+-Bitmap-Copy-2-Mask">
                    <g id="Group-17" transform="translate(386.000000, 102.000000)">
                        <g id="Group-39" transform="translate(51.000000, 0.000000)">
                            <g id="Oval-Copy">
                                <use fill="black" fill-opacity="1" filter="url(#filter-2)" xlink:href="#path-1"></use>
                                <use fill="#FFD542" fill-rule="evenodd" xlink:href="#path-1"></use>
                            </g>
                            <circle id="Oval-Copy-6" stroke="#C0C0C0" stroke-width="0.841994996" cx="87" cy="87" r="86.5790025"></circle>
                            <g id="online-order" transform="translate(59.000000, 51.000000)">
                                <rect id="Rectangle" fill="#FFFFFF" x="17" y="0" width="35" height="51" rx="5"></rect>
                                <ellipse id="Oval" fill="#FFD542" cx="52" cy="31" rx="4" ry="3"></ellipse>
                                <ellipse id="Oval-Copy-4" fill="#FFD542" cx="52" cy="38" rx="4" ry="3"></ellipse>
                                <ellipse id="Oval-Copy-5" fill="#FFD542" cx="52" cy="45" rx="4" ry="3"></ellipse>
                                <ellipse id="Oval-Copy-3" fill="#FFD542" cx="52" cy="24" rx="4" ry="3"></ellipse>
                                <path d="M42.5,34.5 L25.888292,34.5 C25.6597185,29.4172875 27.1264015,26.2830115 30.2883409,25.0971719 C35.03125,23.3184124 32.3975623,23.0575861 32.8237811,21.6764375 C33.25,20.2952889 36.21875,20.4251719 36.21875,21.6764375 C36.21875,22.9277031 35.5472851,23.6385481 37.6191911,24.7863776 C39.6910971,25.9342072 43.1679243,28.1905392 43.1679243,34.0562071" id="Path-5" fill="#FFD542"></path>
                                <path d="M0.6566875,72.8802344 C0.8265,72.9612187 1.0081875,73 1.1863125,73 C1.622125,73 2.0413125,72.7695937 2.2503125,72.3692344 L8.908625,59.5782656 L32.829625,67.5694844 C32.8308125,67.570625 32.8331875,67.570625 32.8355625,67.5717656 L33.9589375,67.9470312 L32.188375,71.348375 C31.8950625,71.9118437 32.1325625,72.5973594 32.7191875,72.8790937 C32.889,72.9612188 33.0706875,73 33.2488125,73 C33.684625,73 34.1038125,72.7695937 34.3128125,72.3692344 L36.6878125,67.8067344 C36.6985,67.7862031 36.696125,67.7656719 36.705625,67.7462812 C36.7175,67.7200469 36.7365,67.698375 36.7471875,67.671 C36.765,67.6219531 36.757875,67.5717656 36.7685625,67.5215781 C36.786375,67.4451562 36.8018125,67.369875 36.800625,67.2934531 C36.800625,67.2204531 36.786375,67.1520156 36.7733125,67.0801562 C36.757875,67.0082969 36.7448125,66.9387187 36.715125,66.8702812 C36.6854375,66.8018437 36.64625,66.7448125 36.6046875,66.6832187 C36.563125,66.621625 36.5239375,66.5634531 36.4693125,66.5098437 C36.4146875,66.4562344 36.3505625,66.4151719 36.2864375,66.3718281 C36.2413125,66.3433125 36.20925,66.2999687 36.1581875,66.2760156 C36.13325,66.2646094 36.107125,66.26575 36.083375,66.2554844 C36.0584375,66.2463594 36.043,66.2269687 36.016875,66.2189844 L35.332875,65.9908594 L48.02725,52.46875 L48.6875,52.46875 C50.651625,52.46875 52.25,50.9334687 52.25,49.046875 C54.869625,49.046875 57,47.0005937 57,44.484375 C57,43.1144844 56.3551875,41.8985781 55.3576875,41.0625 C56.3551875,40.2252812 57,39.009375 57,37.6394844 C57,36.2707344 56.356375,35.0548281 55.358875,34.2176094 C56.356375,33.3803906 57,32.1644844 57,30.7957344 C57,29.4269844 56.356375,28.2110781 55.358875,27.3738594 C56.356375,26.5377812 57,25.321875 57,23.953125 C57,21.4369062 54.869625,19.390625 52.25,19.390625 L52.25,3.421875 C52.25,1.53528125 50.651625,0 48.6875,0 L20.1875,0 C18.223375,0 16.625,1.53528125 16.625,3.421875 L16.625,22.9379687 C15.1156875,21.4551562 13.012625,20.53125 10.6875,20.53125 C10.0308125,20.53125 9.5,21.04225 9.5,21.671875 L9.5,57.3608906 L8.702,57.095125 C8.6485625,57.076875 8.595125,57.0837187 8.5416875,57.0734531 C8.4645,57.058625 8.3896875,57.0437969 8.3125,57.0437969 C8.2353125,57.0437969 8.1616875,57.0574844 8.086875,57.0711719 C8.0120625,57.086 7.9408125,57.0985469 7.8695625,57.1270625 C7.8006875,57.1532969 7.7425,57.1920781 7.6795625,57.2308594 C7.6130625,57.2707812 7.5513125,57.3107031 7.493125,57.3631719 C7.4385,57.4145 7.3969375,57.4749531 7.353,57.5365469 C7.3209375,57.5798906 7.277,57.6118281 7.250875,57.660875 L0.125875,71.348375 C-0.168625,71.9129844 0.0700625,72.5973594 0.6566875,72.8802344 L0.6566875,72.8802344 Z M52.25,46.765625 L51.0625,46.765625 C49.7526875,46.765625 48.6875,45.7424844 48.6875,44.484375 C48.6875,43.2285469 49.7503125,42.2065469 51.0565625,42.203125 C51.0589375,42.203125 51.060125,42.2042656 51.0625,42.2042656 C51.064875,42.2042656 51.0660625,42.203125 51.0684375,42.203125 L52.25,42.203125 C53.5598125,42.203125 54.625,43.2262656 54.625,44.484375 C54.625,45.7424844 53.5598125,46.765625 52.25,46.765625 Z M54.625,37.6394844 C54.625,38.8975937 53.5598125,39.9207344 52.25,39.9207344 C52.247625,39.9207344 52.2464375,39.921875 52.2440625,39.921875 L51.0625,39.921875 C51.060125,39.921875 51.0589375,39.921875 51.0565625,39.921875 C49.7503125,39.9195937 48.6875,38.8975937 48.6875,37.6417656 C48.6875,36.3836562 49.7526875,35.3605156 51.0625,35.3605156 C51.06725,35.3605156 51.069625,35.3582344 51.074375,35.3582344 L52.25,35.3582344 C53.5598125,35.3582344 54.625,36.381375 54.625,37.6394844 Z M51.0625,33.0769844 C51.060125,33.0769844 51.05775,33.078125 51.0541875,33.078125 C49.749125,33.0735625 48.6875,32.0527031 48.6875,30.796875 C48.6875,29.5387656 49.7526875,28.515625 51.0625,28.515625 L52.25,28.515625 C52.252375,28.515625 52.25475,28.5144844 52.2583125,28.5144844 C53.563375,28.5190469 54.625,29.5399062 54.625,30.7957344 C54.625,32.0538437 53.5598125,33.0769844 52.25,33.0769844 L51.0625,33.0769844 Z M54.625,23.953125 C54.625,25.2100937 53.5621875,26.2309531 52.2559375,26.234375 C52.2535625,26.234375 52.252375,26.234375 52.25,26.234375 C52.24525,26.234375 52.242875,26.2366562 52.238125,26.2366562 L51.0684375,26.2366562 C51.0660625,26.2355156 51.064875,26.234375 51.0625,26.234375 C49.7526875,26.234375 48.6875,25.2112344 48.6875,23.953125 C48.6875,22.6950156 49.7526875,21.671875 51.0625,21.671875 L52.25,21.671875 C53.5598125,21.671875 54.625,22.6950156 54.625,23.953125 Z M19,3.421875 C19,2.79339062 19.532,2.28125 20.1875,2.28125 L48.6875,2.28125 C49.343,2.28125 49.875,2.79339062 49.875,3.421875 L49.875,19.5525937 C47.8313125,20.0624531 46.3125,21.8338437 46.3125,23.953125 C46.3125,25.3230156 46.9573125,26.5389219 47.9548125,27.375 C46.9573125,28.2122187 46.3125,29.428125 46.3125,30.796875 C46.3125,32.165625 46.956125,33.3815312 47.953625,34.21875 C46.956125,35.0559687 46.3125,36.271875 46.3125,37.640625 C46.3125,39.009375 46.956125,40.2252812 47.953625,41.0613594 C46.956125,41.8997187 46.3125,43.115625 46.3125,44.484375 C46.3125,46.6036562 47.8313125,48.3750469 49.875,48.8849062 L49.875,49.046875 C49.875,49.6765 49.343,50.1875 48.6875,50.1875 L20.1875,50.1875 C19.532,50.1875 19,49.6765 19,49.046875 L19,3.421875 Z M11.875,22.9277031 C14.5813125,23.4580937 16.625,25.7610156 16.625,28.515625 L16.625,49.046875 C16.625,50.9334687 18.223375,52.46875 20.1875,52.46875 L44.8305,52.46875 L32.896125,65.1787344 L11.875,58.1547656 L11.875,22.9277031 Z" id="Shape" fill="#333333" fill-rule="nonzero"></path>
                                <path d="M10.71125,65.015625 C10.05575,65.015625 9.530875,65.5254844 9.530875,66.15625 C9.530875,66.7870156 10.067625,67.296875 10.7243125,67.296875 C11.3798125,67.296875 11.9118125,66.7870156 11.9118125,66.15625 C11.9118125,65.5254844 11.3798125,65.015625 10.7243125,65.015625 L10.71125,65.015625 Z" id="Path" fill="#333333" fill-rule="nonzero"></path>
                                <path d="M34.4375,42.203125 C32.473375,42.203125 30.875,43.7384063 30.875,45.625 C30.875,47.5115937 32.473375,49.046875 34.4375,49.046875 C36.401625,49.046875 38,47.5115937 38,45.625 C38,43.7384063 36.401625,42.203125 34.4375,42.203125 Z M34.4375,46.765625 C33.782,46.765625 33.25,46.254625 33.25,45.625 C33.25,44.995375 33.782,44.484375 34.4375,44.484375 C35.093,44.484375 35.625,44.995375 35.625,45.625 C35.625,46.254625 35.093,46.765625 34.4375,46.765625 Z" id="Shape" fill="#333333" fill-rule="nonzero"></path>
                                <path d="M30.910625,6.84375 C31.566125,6.84375 32.098125,6.33275 32.098125,5.703125 C32.098125,5.0735 31.566125,4.5625 30.910625,4.5625 L30.89875,4.5625 C30.24325,4.5625 29.718375,5.0735 29.718375,5.703125 C29.718375,6.33275 30.255125,6.84375 30.910625,6.84375 Z" id="Path" fill="#333333" fill-rule="nonzero"></path>
                                <path d="M34.4375,6.84375 L38,6.84375 C38.6566875,6.84375 39.1875,6.33275 39.1875,5.703125 C39.1875,5.0735 38.6566875,4.5625 38,4.5625 L34.4375,4.5625 C33.7808125,4.5625 33.25,5.0735 33.25,5.703125 C33.25,6.33275 33.7808125,6.84375 34.4375,6.84375 Z" id="Path" fill="#333333" fill-rule="nonzero"></path>
                                <path d="M24.9375,35.3639375 L43.9375,35.3639375 C44.5941875,35.3639375 45.125,34.8529375 45.125,34.2233125 C45.125,33.5936875 44.5941875,33.0826875 43.9375,33.0826875 L43.9375,31.9409219 C43.9375,27.8380938 41.1029375,24.3603281 37.2174375,23.2162813 C37.3338125,22.9117344 37.40625,22.5877969 37.40625,22.2456094 C37.40625,20.6738281 36.0750625,19.3940469 34.4375,19.3940469 C32.7999375,19.3940469 31.46875,20.6738281 31.46875,22.2456094 C31.46875,22.5877969 31.542375,22.9117344 31.6575625,23.2162813 C27.7720625,24.3603281 24.9375,27.8380938 24.9375,31.9409219 L24.9375,33.0826875 C24.2808125,33.0826875 23.75,33.5936875 23.75,34.2233125 C23.75,34.8529375 24.2808125,35.3639375 24.9375,35.3639375 Z M33.84375,22.2456094 C33.84375,21.9307969 34.1109375,21.6752969 34.4375,21.6752969 C34.7640625,21.6752969 35.03125,21.9307969 35.03125,22.2456094 C35.03125,22.5604219 34.7640625,22.8159219 34.4375,22.8159219 C34.1109375,22.8159219 33.84375,22.5604219 33.84375,22.2456094 Z M27.3125,31.9409219 C27.3125,28.1665938 30.5080625,25.0971719 34.4375,25.0971719 C38.3669375,25.0971719 41.5625,28.1665938 41.5625,31.9409219 L41.5625,33.0826875 L27.3125,33.0826875 L27.3125,31.9409219 Z" id="Shape" fill="#333333" fill-rule="nonzero"></path>
                                <path d="M28.5011875,21.6764375 C29.157875,21.6764375 29.6886875,21.1654375 29.6886875,20.5358125 L29.6886875,14.828125 C29.6886875,14.1985 29.157875,13.6875 28.5011875,13.6875 C27.8445,13.6875 27.3136875,14.1985 27.3136875,14.828125 L27.3136875,20.5358125 C27.3136875,21.1654375 27.8445,21.6764375 28.5011875,21.6764375 Z" id="Path" fill="#333333" fill-rule="nonzero"></path>
                                <path d="M40.3761875,21.6764375 C41.032875,21.6764375 41.5636875,21.1654375 41.5636875,20.5358125 L41.5636875,14.828125 C41.5636875,14.1985 41.032875,13.6875 40.3761875,13.6875 C39.7195,13.6875 39.1886875,14.1985 39.1886875,14.828125 L39.1886875,20.5358125 C39.1886875,21.1654375 39.7195,21.6764375 40.3761875,21.6764375 Z" id="Path" fill="#333333" fill-rule="nonzero"></path>
                                <path d="M34.4375,18.25 C35.0941875,18.25 35.625,17.739 35.625,17.109375 L35.625,14.828125 C35.625,14.1985 35.0941875,13.6875 34.4375,13.6875 C33.7808125,13.6875 33.25,14.1985 33.25,14.828125 L33.25,17.109375 C33.25,17.739 33.7808125,18.25 34.4375,18.25 Z" id="Path" fill="#333333" fill-rule="nonzero"></path>
                            </g>
                            <g id="Group-12" transform="translate(4.000000, 14.000000)">
                                <circle id="Oval" stroke="#FFD542" fill="#FFFFFF" cx="18" cy="18" r="18"></circle>
                                <text id="2" font-family="BarlowSemiCondensed-Medium, Barlow Semi Condensed" font-size="25" font-style="condensed" font-weight="400" fill="#333333">
                                    <tspan x="13" y="27">2</tspan>
                                </text>
                            </g>
                        </g>
                    </g>
                </g>
            </g>
        </g>
    </g>
</svg>