<?xml version="1.0" encoding="UTF-8"?>
<svg width="24px" height="24px" viewBox="0 0 24 24" version="1.1" xmlns="http://www.w3.org/2000/svg" xmlns:xlink="http://www.w3.org/1999/xlink">
    <!-- Generator: Sketch 52.3 (67297) - http://www.bohemiancoding.com/sketch -->
    <title>icon/action/location</title>
    <desc>Created with Sketch.</desc>
    <defs>
        <path d="M12,2.265 C15.87,2.265 19,5.395 19,9.265 C19,13.435 14.58,19.185 12.77,21.375 C12.37,21.855 11.64,21.855 11.24,21.375 C9.42,19.185 5,13.435 5,9.265 C5,5.395 8.13,2.265 12,2.265 Z M12,3.265 C8.68285714,3.265 6,6.07347971 6,9.54594504 C6,13.2875937 9.78857143,18.4469414 11.3485714,20.41198 C11.6914286,20.8426733 12.3171429,20.8426733 12.66,20.41198 C14.2114286,18.4469414 18,13.2875937 18,9.54594504 C18,6.07347971 15.3171429,3.265 12,3.265 Z M12,11.765 C10.62,11.765 9.5,10.645 9.5,9.265 C9.5,7.885 10.62,6.765 12,6.765 C13.38,6.765 14.5,7.885 14.5,9.265 C14.5,10.645 13.38,11.765 12,11.765 Z" id="path-1"></path>
    </defs>
    <g id="icon/action/location" stroke="none" stroke-width="1" fill="none" fill-rule="evenodd">
        <g>
            <rect id="bounds" x="0" y="0" width="24" height="24"></rect>
            <mask id="mask-2" fill="white">
                <use xlink:href="#path-1"></use>
            </mask>
            <use id="shape" fill="#454545" xlink:href="#path-1"></use>
        </g>
    </g>
</svg>